<?xml version="1.0" encoding="utf-8"?>
<!-- Generator: Adobe Illustrator 19.1.0, SVG Export Plug-In . SVG Version: 6.00 Build 0)  -->
<svg version="1.1" id="Livello_1" xmlns="http://www.w3.org/2000/svg" xmlns:xlink="http://www.w3.org/1999/xlink" x="0px" y="0px"
	 viewBox="-215 394.6 163.9 52.3" style="enable-background:new -215 394.6 163.9 52.3;" xml:space="preserve">
<style type="text/css">
	.st0{fill:#FFFFFF;}
	.st1{fill:#F7982C;}
</style>
<g>
	<path class="st0" d="M-213.7,403.6c1.3-0.2,2.5-0.3,3.6-0.3c1.2,0,2.4,0.1,3.6,0.3l7.7,19.3l8-19.3c1-0.2,2-0.3,3.2-0.3
		c1.2,0,2.3,0.1,3.4,0.3l1.6,33.7c-1.2,0.2-2.3,0.3-3.4,0.3c-1,0-2-0.1-3-0.3l-0.8-22.9l-6.8,15.8c-0.4,0.1-0.9,0.1-1.4,0.2
		c-0.5,0-0.9,0.1-1.4,0.1c-0.4,0-0.8,0-1.2,0c-0.4,0-0.8-0.1-1.3-0.2l-6.4-16.2l-0.7,23.2c-1,0.2-2,0.3-2.9,0.3c-1,0-2-0.1-3.1-0.3
		L-213.7,403.6z"/>
	<path class="st0" d="M-165.7,421.1c0-0.7-0.1-1.4-0.4-1.8c-0.2-0.5-0.6-0.8-1-1.1c-0.4-0.3-1-0.4-1.6-0.5c-0.6-0.1-1.4-0.1-2.1-0.1
		c-1.7,0-3.5,0.3-5.4,1c-0.4-0.8-0.8-1.6-1-2.3c-0.2-0.7-0.3-1.6-0.3-2.6c1.4-0.5,2.7-0.8,4.1-1c1.4-0.2,2.7-0.3,3.8-0.3
		c3.2,0,5.8,0.8,7.6,2.3c1.8,1.6,2.7,4.1,2.7,7.5v14.1c-1.1,0.3-2.4,0.7-4,1c-1.6,0.3-3.3,0.5-5.3,0.5c-1.6,0-3.1-0.1-4.4-0.4
		s-2.5-0.8-3.4-1.4c-1-0.7-1.7-1.5-2.2-2.5s-0.8-2.3-0.8-3.8s0.3-2.8,1-3.8c0.6-1,1.5-1.8,2.5-2.4s2.1-1,3.4-1.3
		c1.2-0.3,2.5-0.4,3.8-0.4c0.9,0,1.9,0,3,0.1C-165.7,421.9-165.7,421.1-165.7,421.1z M-165.7,425.9c-0.4-0.1-0.8-0.1-1.2-0.2
		c-0.4,0-0.8-0.1-1.2-0.1c-1.5,0-2.7,0.3-3.6,0.8c-0.9,0.5-1.3,1.4-1.3,2.6c0,0.8,0.2,1.4,0.5,1.9c0.3,0.4,0.8,0.8,1.2,1
		c0.5,0.2,1,0.3,1.5,0.4c0.5,0,1,0.1,1.4,0.1c0.5,0,0.9,0,1.4-0.1s0.9-0.1,1.2-0.2L-165.7,425.9L-165.7,425.9z"/>
	<path class="st0" d="M-138.4,426.9c0.1,1.9,0.8,3.2,2,4.1c1.2,0.8,2.7,1.3,4.7,1.3c1.1,0,2.1-0.1,3.3-0.3c1.1-0.2,2.2-0.5,3.2-0.9
		c0.3,0.6,0.6,1.4,0.9,2.2c0.2,0.9,0.4,1.8,0.4,2.8c-2.4,0.9-5.2,1.4-8.2,1.4c-2.2,0-4.2-0.3-5.8-0.9c-1.6-0.6-2.9-1.5-3.9-2.6
		c-1-1.1-1.8-2.4-2.2-4c-0.5-1.5-0.7-3.2-0.7-5c0-1.8,0.2-3.5,0.8-5c0.5-1.6,1.2-2.9,2.2-4.1c1-1.2,2.2-2.1,3.7-2.7
		c1.5-0.7,3.1-1,5.1-1c1.7,0,3.2,0.3,4.5,0.9c1.3,0.6,2.4,1.4,3.4,2.4c0.9,1,1.6,2.3,2.1,3.7s0.7,2.9,0.7,4.6c0,0.6,0,1.2-0.1,1.8
		c0,0.6-0.1,1-0.2,1.4h-15.9V426.9z M-128.9,422.3c-0.1-1.5-0.5-2.7-1.2-3.7c-0.8-0.9-1.8-1.4-3.2-1.4c-1.6,0-2.8,0.4-3.6,1.3
		c-0.8,0.9-1.3,2.1-1.5,3.7h9.5V422.3z"/>
	<path class="st0" d="M-114.4,426.9c0.1,1.9,0.8,3.2,2,4.1c1.2,0.8,2.7,1.3,4.7,1.3c1.1,0,2.1-0.1,3.3-0.3c1.1-0.2,2.2-0.5,3.2-0.9
		c0.3,0.6,0.6,1.4,0.9,2.2c0.2,0.9,0.4,1.8,0.4,2.8c-2.4,0.9-5.2,1.4-8.2,1.4c-2.2,0-4.2-0.3-5.8-0.9c-1.6-0.6-2.9-1.5-3.9-2.6
		c-1-1.1-1.8-2.4-2.2-4c-0.5-1.5-0.7-3.2-0.7-5c0-1.8,0.2-3.5,0.8-5c0.5-1.6,1.2-2.9,2.2-4.1c1-1.2,2.2-2.1,3.7-2.7
		c1.5-0.7,3.1-1,5.1-1c1.7,0,3.2,0.3,4.5,0.9c1.3,0.6,2.4,1.4,3.4,2.4c0.9,1,1.6,2.3,2.1,3.7s0.7,2.9,0.7,4.6c0,0.6,0,1.2-0.1,1.8
		c0,0.6-0.1,1-0.2,1.4h-15.9V426.9z M-104.9,422.3c-0.1-1.5-0.5-2.7-1.2-3.6c-0.8-0.9-1.8-1.4-3.2-1.4c-1.6,0-2.7,0.4-3.6,1.3
		c-0.8,0.9-1.3,2.1-1.5,3.7H-104.9z"/>
	<path class="st0" d="M-96.1,402.7c1.1-0.2,2.2-0.3,3.3-0.3c1.1,0,2.2,0.1,3.3,0.3V437c-1.1,0.2-2.2,0.3-3.3,0.3
		c-1.1,0-2.2-0.1-3.3-0.3V402.7z M-88.6,424.3l6-11.5c1.2-0.2,2.5-0.3,3.7-0.3s2.3,0.1,3.5,0.3l-6.2,11.2l7.2,13
		c-1.3,0.2-2.5,0.3-3.7,0.3c-1.1,0-2.2-0.1-3.5-0.3L-88.6,424.3z"/>
	<path class="st0" d="M-62.7,437.6c-2,0-3.7-0.3-5.1-1c-1.5-0.6-2.7-1.5-3.6-2.7c-1-1.1-1.7-2.5-2.2-4s-0.7-3.2-0.7-5s0.2-3.4,0.7-5
		s1.2-2.9,2.2-4.1c1-1.1,2.2-2,3.6-2.7c1.5-0.7,3.2-1,5.1-1c2,0,3.7,0.3,5.2,1c1.5,0.7,2.7,1.6,3.7,2.7s1.7,2.5,2.2,4.1
		s0.7,3.2,0.7,5s-0.2,3.4-0.7,5c-0.5,1.5-1.2,2.9-2.2,4s-2.2,2-3.7,2.7C-59,437.2-60.8,437.6-62.7,437.6z M-62.7,432.5
		c1.8,0,3-0.6,3.8-1.9c0.8-1.3,1.1-3.2,1.1-5.6s-0.4-4.3-1.1-5.6c-0.8-1.3-2-1.9-3.8-1.9c-1.7,0-3,0.6-3.7,1.9
		c-0.8,1.3-1.1,3.2-1.1,5.6s0.4,4.3,1.1,5.6C-65.7,431.8-64.4,432.5-62.7,432.5z"/>
	<g>
		<path class="st1" d="M-157.2,395.2c0.1-0.6,0.6-0.8,1-0.3l2.4,2.7c0.4,0.5,1.3,0.8,2,0.7l3.6-0.5c0.7-0.1,0.9,0.3,0.6,0.9
			l-1.8,3.2c-0.3,0.6-0.4,1.5-0.1,2.1l1.6,3.3c0.3,0.6,0,1-0.7,0.8l-3.6-0.8c-0.6-0.1-1.6,0.1-2,0.6l-2.7,2.7
			c-0.5,0.5-0.9,0.3-1-0.4l-0.4-3.7c-0.1-0.7-0.6-1.5-1.2-1.8l-3.2-1.8c-0.6-0.3-0.6-0.8,0-1.1l3.4-1.5c0.6-0.3,1.2-1,1.3-1.7
			L-157.2,395.2z"/>
	</g>
	<path class="st0" d="M-148,419.7L-148,419.7c0,0.1,0,0.2-0.1,0.3C-148,419.9-148,419.8-148,419.7L-148,419.7
		c-0.1-2.1-0.3-4.3-0.6-6.4l0,0c-0.2-1.3-1.8-2.1-3.5-1.9c-1.8,0.3-3,1.5-2.9,2.8l0,0l0,0l0,0l0,0c0.3,1.9,0.4,3.8,0.5,5.7
		c0,0.8,0,1.5,0,2.3c0,6.9-0.7,15.3-2.9,21.3l0,0c-0.4,1.1,0.5,2.5,2.1,3.1c1.6,0.6,3.2,0.1,3.6-1l0,0c2.5-6.6,3.7-15.7,3.7-23.4
		C-147.9,421.4-147.9,420.6-148,419.7z M-148.5,421c-0.1,0.1-0.2,0.2-0.3,0.3C-148.7,421.2-148.6,421.1-148.5,421z M-148.1,420.2
		c0,0.1-0.1,0.2-0.1,0.3C-148.1,420.4-148.1,420.3-148.1,420.2z M-148.2,420.6c-0.1,0.1-0.1,0.2-0.2,0.3
		C-148.4,420.8-148.3,420.7-148.2,420.6z M-149.2,421.6c0.1-0.1,0.2-0.2,0.3-0.3C-148.9,421.4-149.1,421.5-149.2,421.6z"/>
</g>
</svg>
